<?xml version="1.0" encoding="UTF-8" standalone="no"?>
<!-- Created with Inkscape (http://www.inkscape.org/) -->

<svg
   width="99.22892mm"
   height="99.22892mm"
   viewBox="-10 -10 120 120"
   version="1.1"
   id="svg5"
   inkscape:version="1.2.1 (9c6d41e410, 2022-07-14)"
   sodipodi:docname="legacoin.svg"
   xmlns:inkscape="http://www.inkscape.org/namespaces/inkscape"
   xmlns:sodipodi="http://sodipodi.sourceforge.net/DTD/sodipodi-0.dtd"
   xmlns:xlink="http://www.w3.org/1999/xlink"
   xmlns="http://www.w3.org/2000/svg"
   xmlns:svg="http://www.w3.org/2000/svg">
  <sodipodi:namedview
     id="namedview7"
     pagecolor="#000000"
     bordercolor="#000000"
     borderopacity="0.25"
     inkscape:showpageshadow="2"
     inkscape:pageopacity="0"
     inkscape:pagecheckerboard="0"
     inkscape:deskcolor="#d1d1d1"
     inkscape:document-units="mm"
     showgrid="false"
     showguides="false"
     inkscape:zoom="1.4645623"
     inkscape:cx="191.8662"
     inkscape:cy="146.11874"
     inkscape:window-width="1920"
     inkscape:window-height="1000"
     inkscape:window-x="0"
     inkscape:window-y="30"
     inkscape:window-maximized="1"
     inkscape:current-layer="layer1" />
  <defs
     id="defs2">
    <linearGradient
       inkscape:collect="always"
       id="linearGradient5539">
      <stop
         style="stop-color:#000000;stop-opacity:1;"
         offset="0"
         id="stop5535" />
      <stop
         style="stop-color:#000000;stop-opacity:0;"
         offset="1"
         id="stop5537" />
    </linearGradient>
    <rect
       x="71.820133"
       y="71.835199"
       width="221.71152"
       height="242.79984"
       id="rect5429" />
    <linearGradient
       inkscape:collect="always"
       xlink:href="#linearGradient5539"
       id="linearGradient5541"
       x1="72.984312"
       y1="78.47044"
       x2="77.808312"
       y2="78.47044"
       gradientUnits="userSpaceOnUse" />
  </defs>
  <g
     inkscape:label="Layer 1"
     inkscape:groupmode="layer"
     id="layer1"
     transform="translate(-64.85889,-50.093723)">
    <circle
       style="fill:none;fill-opacity:1;stroke:#ffffff;stroke-width:7.52762;stroke-dasharray:none;stroke-opacity:1"
       id="path788-3"
       cx="115.32513"
       cy="100.55997"
       r="50.655807" />
    <text
       xml:space="preserve"
       transform="matrix(8.5361945,0,0,8.5361945,-527.14432,-570.36934)"
       id="text5427"
       style="white-space:pre;shape-inside:url(#rect5429);display:inline;fill:#ffffff;fill-opacity:1;stroke:none;stroke-width:0.283341;stroke-dasharray:none;stroke-opacity:1"><tspan
         x="71.820312"
         y="82.75444"
         id="tspan4648">L</tspan></text>
  </g>
</svg>
